%YAML 1.1
%TAG !u! tag:unity3d.com,2011:
--- !u!1045 &1
EditorBuildSettings:
  m_ObjectHideFlags: 0
  serializedVersion: 2
  m_Scenes:
  - enabled: 1
    path: Assets/Scenes/Main Menu.unity
    guid: 8fbf814520672a741be4e20dee448793
  - enabled: 1
    path: Assets/Scenes/SelectChar.unity
    guid: b7a9506a93cd7924e95f7730e02b1d0a
  - enabled: 1
    path: Assets/Scenes/Level.unity
    guid: 34a5829dd9dadd145b759488d6507a91
  - enabled: 1
    path: Assets/Scenes/Setting.unity
    guid: 36937f0f78b6594479cdb8c74077e4fa
  - enabled: 1
    path: Assets/Scenes/Credit.unity
    guid: c268b9fb29d52da42acb42a5d488197f
  m_configObjects: {}
